Introduction to feasts
…
An alternative visualisation of seasonal patterns is the subseries plot (gg_subseries()), which isolates seasonal periods into separate plots. The blue lines indicate the average number of trips in each quarter, making the increase in visiting tourism from Q3 to Q4 more obvious. This plot style is especially useful in seeing how seasonality changes over time. Focusing on the visiting tourism (last row of facets), the number of tourists in Q3 and Q4 are increasing much more than in Q1 and Q2 (suggesting that the trend may vary between seasons).

A look at the correlations in each series could reveal structures which are difficult to identify in the above plots.

tourism_melb %>%
  ACF(Trips)
#> # A tsibble: 76 x 5 [1Q]
#> # Key:       Region, State, Purpose [4]
#>    Region    State    Purpose    lag     acf
#>    <chr>     <chr>    <chr>    <lag>   <dbl>
#>  1 Melbourne Victoria Business    1Q  0.487 
#>  2 Melbourne Victoria Business    2Q  0.193 
#>  3 Melbourne Victoria Business    3Q  0.331 
#>  4 Melbourne Victoria Business    4Q  0.470 
#>  5 Melbourne Victoria Business    5Q  0.219 
#>  6 Melbourne Victoria Business    6Q  0.0750
#>  7 Melbourne Victoria Business    7Q  0.168 
#>  8 Melbourne Victoria Business    8Q  0.321 
#>  9 Melbourne Victoria Business    9Q  0.166 
#> 10 Melbourne Victoria Business   10Q -0.0183
#> # … with 66 more rows
…
